(footprint "Mounting_Hole_1.06mm" (version 20221018) (generator pcbnew)
  (layer "F.Cu")
  (attr smd)
  (fp_text reference "REF**" (at 0 -2.54 unlocked) (layer "F.SilkS")
      (effects (font (size 1 1) (thickness 0.1)))
    (tstamp 8ce369e1-1a75-4954-b358-ba4d0a72a87a)
  )
  (fp_text value "Mounting_Hole_1.06mm" (at 0 2.54 unlocked) (layer "F.Fab")
      (effects (font (size 1 1) (thickness 0.15)))
    (tstamp 4087f82f-2482-434e-8e74-491c204eaa00)
  )
  (fp_text user "${REFERENCE}" (at 0 5.08 unlocked) (layer "F.Fab")
      (effects (font (size 1 1) (thickness 0.15)))
    (tstamp 715262ff-f5e2-4549-b122-1729e74ca5f9)
  )
  (pad "1" thru_hole circle (at 0 0 90) (size 1.5 1.5) (drill 1.06) (layers "*.Cu" "*.Mask") (tstamp 23a6e19f-1c00-4e5b-9a86-19be117c6544))
)
