(kicad_sch (version 20230121) (generator eeschema)

  (uuid dd96ad36-134f-47de-9868-ae7277e41ced)

  (paper "A4")

  (lib_symbols
    (symbol "MCU_RaspberryPi:RP2040" (in_bom yes) (on_board yes)
      (property "Reference" "U" (at 17.78 45.72 0)
        (effects (font (size 1.27 1.27)))
      )
      (property "Value" "RP2040" (at 17.78 43.18 0)
        (effects (font (size 1.27 1.27)))
      )
      (property "Footprint" "Package_DFN_QFN:QFN-56-1EP_7x7mm_P0.4mm_EP3.2x3.2mm" (at 0 0 0)
        (effects (font (size 1.27 1.27)) hide)
      )
      (property "Datasheet" "https://datasheets.raspberrypi.com/rp2040/rp2040-datasheet.pdf" (at 0 0 0)
        (effects (font (size 1.27 1.27)) hide)
      )
      (property "ki_keywords" "RP2040 ARM Cortex-M0+ USB" (at 0 0 0)
        (effects (font (size 1.27 1.27)) hide)
      )
      (property "ki_description" "A microcontroller by Raspberry Pi" (at 0 0 0)
        (effects (font (size 1.27 1.27)) hide)
      )
      (property "ki_fp_filters" "QFN*1EP*7x7mm?P0.4mm*" (at 0 0 0)
        (effects (font (size 1.27 1.27)) hide)
      )
      (symbol "RP2040_0_1"
        (rectangle (start -21.59 41.91) (end 21.59 -41.91)
          (stroke (width 0.254) (type default))
          (fill (type background))
        )
      )
      (symbol "RP2040_1_1"
        (pin power_in line (at 2.54 45.72 270) (length 3.81)
          (name "IOVDD" (effects (font (size 1.27 1.27))))
          (number "1" (effects (font (size 1.27 1.27))))
        )
        (pin passive line (at 2.54 45.72 270) (length 3.81) hide
          (name "IOVDD" (effects (font (size 1.27 1.27))))
          (number "10" (effects (font (size 1.27 1.27))))
        )
        (pin bidirectional line (at 25.4 17.78 180) (length 3.81)
          (name "GPIO8" (effects (font (size 1.27 1.27))))
          (number "11" (effects (font (size 1.27 1.27))))
        )
        (pin bidirectional line (at 25.4 15.24 180) (length 3.81)
          (name "GPIO9" (effects (font (size 1.27 1.27))))
          (number "12" (effects (font (size 1.27 1.27))))
        )
        (pin bidirectional line (at 25.4 12.7 180) (length 3.81)
          (name "GPIO10" (effects (font (size 1.27 1.27))))
          (number "13" (effects (font (size 1.27 1.27))))
        )
        (pin bidirectional line (at 25.4 10.16 180) (length 3.81)
          (name "GPIO11" (effects (font (size 1.27 1.27))))
          (number "14" (effects (font (size 1.27 1.27))))
        )
        (pin bidirectional line (at 25.4 7.62 180) (length 3.81)
          (name "GPIO12" (effects (font (size 1.27 1.27))))
          (number "15" (effects (font (size 1.27 1.27))))
        )
        (pin bidirectional line (at 25.4 5.08 180) (length 3.81)
          (name "GPIO13" (effects (font (size 1.27 1.27))))
          (number "16" (effects (font (size 1.27 1.27))))
        )
        (pin bidirectional line (at 25.4 2.54 180) (length 3.81)
          (name "GPIO14" (effects (font (size 1.27 1.27))))
          (number "17" (effects (font (size 1.27 1.27))))
        )
        (pin bidirectional line (at 25.4 0 180) (length 3.81)
          (name "GPIO15" (effects (font (size 1.27 1.27))))
          (number "18" (effects (font (size 1.27 1.27))))
        )
        (pin input line (at -25.4 -38.1 0) (length 3.81)
          (name "TESTEN" (effects (font (size 1.27 1.27))))
          (number "19" (effects (font (size 1.27 1.27))))
        )
        (pin bidirectional line (at 25.4 38.1 180) (length 3.81)
          (name "GPIO0" (effects (font (size 1.27 1.27))))
          (number "2" (effects (font (size 1.27 1.27))))
        )
        (pin input line (at -25.4 -7.62 0) (length 3.81)
          (name "XIN" (effects (font (size 1.27 1.27))))
          (number "20" (effects (font (size 1.27 1.27))))
        )
        (pin passive line (at -25.4 -17.78 0) (length 3.81)
          (name "XOUT" (effects (font (size 1.27 1.27))))
          (number "21" (effects (font (size 1.27 1.27))))
        )
        (pin passive line (at 2.54 45.72 270) (length 3.81) hide
          (name "IOVDD" (effects (font (size 1.27 1.27))))
          (number "22" (effects (font (size 1.27 1.27))))
        )
        (pin power_in line (at -2.54 45.72 270) (length 3.81)
          (name "DVDD" (effects (font (size 1.27 1.27))))
          (number "23" (effects (font (size 1.27 1.27))))
        )
        (pin input line (at -25.4 -27.94 0) (length 3.81)
          (name "SWCLK" (effects (font (size 1.27 1.27))))
          (number "24" (effects (font (size 1.27 1.27))))
        )
        (pin bidirectional line (at -25.4 -30.48 0) (length 3.81)
          (name "SWD" (effects (font (size 1.27 1.27))))
          (number "25" (effects (font (size 1.27 1.27))))
        )
        (pin input line (at -25.4 38.1 0) (length 3.81)
          (name "RUN" (effects (font (size 1.27 1.27))))
          (number "26" (effects (font (size 1.27 1.27))))
        )
        (pin bidirectional line (at 25.4 -2.54 180) (length 3.81)
          (name "GPIO16" (effects (font (size 1.27 1.27))))
          (number "27" (effects (font (size 1.27 1.27))))
        )
        (pin bidirectional line (at 25.4 -5.08 180) (length 3.81)
          (name "GPIO17" (effects (font (size 1.27 1.27))))
          (number "28" (effects (font (size 1.27 1.27))))
        )
        (pin bidirectional line (at 25.4 -7.62 180) (length 3.81)
          (name "GPIO18" (effects (font (size 1.27 1.27))))
          (number "29" (effects (font (size 1.27 1.27))))
        )
        (pin bidirectional line (at 25.4 35.56 180) (length 3.81)
          (name "GPIO1" (effects (font (size 1.27 1.27))))
          (number "3" (effects (font (size 1.27 1.27))))
        )
        (pin bidirectional line (at 25.4 -10.16 180) (length 3.81)
          (name "GPIO19" (effects (font (size 1.27 1.27))))
          (number "30" (effects (font (size 1.27 1.27))))
        )
        (pin bidirectional line (at 25.4 -12.7 180) (length 3.81)
          (name "GPIO20" (effects (font (size 1.27 1.27))))
          (number "31" (effects (font (size 1.27 1.27))))
        )
        (pin bidirectional line (at 25.4 -15.24 180) (length 3.81)
          (name "GPIO21" (effects (font (size 1.27 1.27))))
          (number "32" (effects (font (size 1.27 1.27))))
        )
        (pin passive line (at 2.54 45.72 270) (length 3.81) hide
          (name "IOVDD" (effects (font (size 1.27 1.27))))
          (number "33" (effects (font (size 1.27 1.27))))
        )
        (pin bidirectional line (at 25.4 -17.78 180) (length 3.81)
          (name "GPIO22" (effects (font (size 1.27 1.27))))
          (number "34" (effects (font (size 1.27 1.27))))
        )
        (pin bidirectional line (at 25.4 -20.32 180) (length 3.81)
          (name "GPIO23" (effects (font (size 1.27 1.27))))
          (number "35" (effects (font (size 1.27 1.27))))
        )
        (pin bidirectional line (at 25.4 -22.86 180) (length 3.81)
          (name "GPIO24" (effects (font (size 1.27 1.27))))
          (number "36" (effects (font (size 1.27 1.27))))
        )
        (pin bidirectional line (at 25.4 -25.4 180) (length 3.81)
          (name "GPIO25" (effects (font (size 1.27 1.27))))
          (number "37" (effects (font (size 1.27 1.27))))
        )
        (pin bidirectional line (at 25.4 -30.48 180) (length 3.81)
          (name "GPIO26_ADC0" (effects (font (size 1.27 1.27))))
          (number "38" (effects (font (size 1.27 1.27))))
        )
        (pin bidirectional line (at 25.4 -33.02 180) (length 3.81)
          (name "GPIO27_ADC1" (effects (font (size 1.27 1.27))))
          (number "39" (effects (font (size 1.27 1.27))))
        )
        (pin bidirectional line (at 25.4 33.02 180) (length 3.81)
          (name "GPIO2" (effects (font (size 1.27 1.27))))
          (number "4" (effects (font (size 1.27 1.27))))
        )
        (pin bidirectional line (at 25.4 -35.56 180) (length 3.81)
          (name "GPIO28_ADC2" (effects (font (size 1.27 1.27))))
          (number "40" (effects (font (size 1.27 1.27))))
        )
        (pin bidirectional line (at 25.4 -38.1 180) (length 3.81)
          (name "GPIO29_ADC3" (effects (font (size 1.27 1.27))))
          (number "41" (effects (font (size 1.27 1.27))))
        )
        (pin passive line (at 2.54 45.72 270) (length 3.81) hide
          (name "IOVDD" (effects (font (size 1.27 1.27))))
          (number "42" (effects (font (size 1.27 1.27))))
        )
        (pin power_in line (at 7.62 45.72 270) (length 3.81)
          (name "ADC_AVDD" (effects (font (size 1.27 1.27))))
          (number "43" (effects (font (size 1.27 1.27))))
        )
        (pin power_in line (at 10.16 45.72 270) (length 3.81)
          (name "VREG_IN" (effects (font (size 1.27 1.27))))
          (number "44" (effects (font (size 1.27 1.27))))
        )
        (pin power_out line (at -5.08 45.72 270) (length 3.81)
          (name "VREG_VOUT" (effects (font (size 1.27 1.27))))
          (number "45" (effects (font (size 1.27 1.27))))
        )
        (pin bidirectional line (at -25.4 27.94 0) (length 3.81)
          (name "USB_DM" (effects (font (size 1.27 1.27))))
          (number "46" (effects (font (size 1.27 1.27))))
        )
        (pin bidirectional line (at -25.4 30.48 0) (length 3.81)
          (name "USB_DP" (effects (font (size 1.27 1.27))))
          (number "47" (effects (font (size 1.27 1.27))))
        )
        (pin power_in line (at 5.08 45.72 270) (length 3.81)
          (name "USB_VDD" (effects (font (size 1.27 1.27))))
          (number "48" (effects (font (size 1.27 1.27))))
        )
        (pin passive line (at 2.54 45.72 270) (length 3.81) hide
          (name "IOVDD" (effects (font (size 1.27 1.27))))
          (number "49" (effects (font (size 1.27 1.27))))
        )
        (pin bidirectional line (at 25.4 30.48 180) (length 3.81)
          (name "GPIO3" (effects (font (size 1.27 1.27))))
          (number "5" (effects (font (size 1.27 1.27))))
        )
        (pin passive line (at -2.54 45.72 270) (length 3.81) hide
          (name "DVDD" (effects (font (size 1.27 1.27))))
          (number "50" (effects (font (size 1.27 1.27))))
        )
        (pin bidirectional line (at -25.4 7.62 0) (length 3.81)
          (name "QSPI_SD3" (effects (font (size 1.27 1.27))))
          (number "51" (effects (font (size 1.27 1.27))))
        )
        (pin output line (at -25.4 5.08 0) (length 3.81)
          (name "QSPI_SCLK" (effects (font (size 1.27 1.27))))
          (number "52" (effects (font (size 1.27 1.27))))
        )
        (pin bidirectional line (at -25.4 15.24 0) (length 3.81)
          (name "QSPI_SD0" (effects (font (size 1.27 1.27))))
          (number "53" (effects (font (size 1.27 1.27))))
        )
        (pin bidirectional line (at -25.4 10.16 0) (length 3.81)
          (name "QSPI_SD2" (effects (font (size 1.27 1.27))))
          (number "54" (effects (font (size 1.27 1.27))))
        )
        (pin bidirectional line (at -25.4 12.7 0) (length 3.81)
          (name "QSPI_SD1" (effects (font (size 1.27 1.27))))
          (number "55" (effects (font (size 1.27 1.27))))
        )
        (pin bidirectional line (at -25.4 20.32 0) (length 3.81)
          (name "QSPI_SS" (effects (font (size 1.27 1.27))))
          (number "56" (effects (font (size 1.27 1.27))))
        )
        (pin power_in line (at 0 -45.72 90) (length 3.81)
          (name "GND" (effects (font (size 1.27 1.27))))
          (number "57" (effects (font (size 1.27 1.27))))
        )
        (pin bidirectional line (at 25.4 27.94 180) (length 3.81)
          (name "GPIO4" (effects (font (size 1.27 1.27))))
          (number "6" (effects (font (size 1.27 1.27))))
        )
        (pin bidirectional line (at 25.4 25.4 180) (length 3.81)
          (name "GPIO5" (effects (font (size 1.27 1.27))))
          (number "7" (effects (font (size 1.27 1.27))))
        )
        (pin bidirectional line (at 25.4 22.86 180) (length 3.81)
          (name "GPIO6" (effects (font (size 1.27 1.27))))
          (number "8" (effects (font (size 1.27 1.27))))
        )
        (pin bidirectional line (at 25.4 20.32 180) (length 3.81)
          (name "GPIO7" (effects (font (size 1.27 1.27))))
          (number "9" (effects (font (size 1.27 1.27))))
        )
      )
    )
    (symbol "PCM_4ms_Power-symbol:GND" (power) (pin_names (offset 0)) (in_bom yes) (on_board yes)
      (property "Reference" "#PWR" (at 0 -6.35 0)
        (effects (font (size 1.27 1.27)) hide)
      )
      (property "Value" "GND" (at 0 -3.81 0)
        (effects (font (size 1.27 1.27)))
      )
      (property "Footprint" "" (at 0 0 0)
        (effects (font (size 1.27 1.27)) hide)
      )
      (property "Datasheet" "" (at 0 0 0)
        (effects (font (size 1.27 1.27)) hide)
      )
      (symbol "GND_0_1"
        (polyline
          (pts
            (xy 0 0)
            (xy 0 -1.27)
            (xy 1.27 -1.27)
            (xy 0 -2.54)
            (xy -1.27 -1.27)
            (xy 0 -1.27)
          )
          (stroke (width 0) (type default))
          (fill (type none))
        )
      )
      (symbol "GND_1_1"
        (pin power_in line (at 0 0 270) (length 0) hide
          (name "GND" (effects (font (size 1.27 1.27))))
          (number "1" (effects (font (size 1.27 1.27))))
        )
      )
    )
    (symbol "power:+3V3" (power) (pin_names (offset 0)) (in_bom yes) (on_board yes)
      (property "Reference" "#PWR" (at 0 -3.81 0)
        (effects (font (size 1.27 1.27)) hide)
      )
      (property "Value" "+3V3" (at 0 3.556 0)
        (effects (font (size 1.27 1.27)))
      )
      (property "Footprint" "" (at 0 0 0)
        (effects (font (size 1.27 1.27)) hide)
      )
      (property "Datasheet" "" (at 0 0 0)
        (effects (font (size 1.27 1.27)) hide)
      )
      (property "ki_keywords" "global power" (at 0 0 0)
        (effects (font (size 1.27 1.27)) hide)
      )
      (property "ki_description" "Power symbol creates a global label with name \"+3V3\"" (at 0 0 0)
        (effects (font (size 1.27 1.27)) hide)
      )
      (symbol "+3V3_0_1"
        (polyline
          (pts
            (xy -0.762 1.27)
            (xy 0 2.54)
          )
          (stroke (width 0) (type default))
          (fill (type none))
        )
        (polyline
          (pts
            (xy 0 0)
            (xy 0 2.54)
          )
          (stroke (width 0) (type default))
          (fill (type none))
        )
        (polyline
          (pts
            (xy 0 2.54)
            (xy 0.762 1.27)
          )
          (stroke (width 0) (type default))
          (fill (type none))
        )
      )
      (symbol "+3V3_1_1"
        (pin power_in line (at 0 0 90) (length 0) hide
          (name "+3V3" (effects (font (size 1.27 1.27))))
          (number "1" (effects (font (size 1.27 1.27))))
        )
      )
    )
  )

  (junction (at 67.31 24.13) (diameter 0) (color 0 0 0 0)
    (uuid 1cd844a6-7fca-48c1-a87d-adf134f7747f)
  )
  (junction (at 64.77 24.13) (diameter 0) (color 0 0 0 0)
    (uuid 494d5334-d089-4a3d-82d7-38baaff9e778)
  )
  (junction (at 59.69 124.46) (diameter 0) (color 0 0 0 0)
    (uuid 8e651c62-322b-4cfd-995e-9f0b2e060046)
  )

  (wire (pts (xy 62.23 24.13) (xy 64.77 24.13))
    (stroke (width 0) (type default))
    (uuid 196a1362-2ab4-4fac-bee1-1f47dc2bb837)
  )
  (wire (pts (xy 34.29 110.49) (xy 34.29 124.46))
    (stroke (width 0) (type default))
    (uuid 1a6cf09e-3097-4a2c-a109-b326c58158e6)
  )
  (wire (pts (xy 59.69 118.11) (xy 59.69 124.46))
    (stroke (width 0) (type default))
    (uuid 1d0d80a8-9fca-4ec1-9ccc-841b274b5d1a)
  )
  (wire (pts (xy 64.77 24.13) (xy 64.77 26.67))
    (stroke (width 0) (type default))
    (uuid 23ea00e6-19e1-4a7d-a77f-e64ef0e48c28)
  )
  (wire (pts (xy 59.69 124.46) (xy 59.69 135.89))
    (stroke (width 0) (type default))
    (uuid 2d27af74-b9c0-45ed-8bc5-3a5cf5f92e1f)
  )
  (wire (pts (xy 64.77 19.05) (xy 64.77 24.13))
    (stroke (width 0) (type default))
    (uuid 53b21c33-c6d7-4dbb-a09a-b10de75a7d2a)
  )
  (wire (pts (xy 62.23 26.67) (xy 62.23 24.13))
    (stroke (width 0) (type default))
    (uuid 738b97da-ebf3-4908-a8fd-edb47d290ca2)
  )
  (wire (pts (xy 67.31 24.13) (xy 69.85 24.13))
    (stroke (width 0) (type default))
    (uuid 97ac4c12-d5fc-428b-b78e-39e2ec565ca6)
  )
  (wire (pts (xy 67.31 24.13) (xy 67.31 26.67))
    (stroke (width 0) (type default))
    (uuid 97b73223-e883-4a9b-988c-ed23758189f8)
  )
  (wire (pts (xy 64.77 24.13) (xy 67.31 24.13))
    (stroke (width 0) (type default))
    (uuid 9d8db568-d858-4cb6-90ae-92da09e746db)
  )
  (wire (pts (xy 69.85 24.13) (xy 69.85 26.67))
    (stroke (width 0) (type default))
    (uuid f184545f-0713-4ed5-8d97-4cdf5446ec7d)
  )
  (wire (pts (xy 34.29 124.46) (xy 59.69 124.46))
    (stroke (width 0) (type default))
    (uuid fed87570-9316-485f-be6d-c5378a76fd53)
  )

  (symbol (lib_id "power:+3V3") (at 64.77 19.05 0) (unit 1)
    (in_bom yes) (on_board yes) (dnp no) (fields_autoplaced)
    (uuid 6afa6d0d-5417-438a-8e3a-b194ce65462e)
    (property "Reference" "#PWR02" (at 64.77 22.86 0)
      (effects (font (size 1.27 1.27)) hide)
    )
    (property "Value" "+3V3" (at 64.77 13.97 0)
      (effects (font (size 1.27 1.27)))
    )
    (property "Footprint" "" (at 64.77 19.05 0)
      (effects (font (size 1.27 1.27)) hide)
    )
    (property "Datasheet" "" (at 64.77 19.05 0)
      (effects (font (size 1.27 1.27)) hide)
    )
    (pin "1" (uuid 9784fdd7-b87d-491f-b4d0-da94cb3d5768))
    (instances
      (project "Rev1"
        (path "/dd96ad36-134f-47de-9868-ae7277e41ced"
          (reference "#PWR02") (unit 1)
        )
      )
    )
  )

  (symbol (lib_id "PCM_4ms_Power-symbol:GND") (at 59.69 135.89 0) (unit 1)
    (in_bom yes) (on_board yes) (dnp no) (fields_autoplaced)
    (uuid 73b6d077-6952-468f-81e3-5efa36e4cb10)
    (property "Reference" "#PWR01" (at 59.69 142.24 0)
      (effects (font (size 1.27 1.27)) hide)
    )
    (property "Value" "GND" (at 59.69 140.97 0)
      (effects (font (size 1.27 1.27)))
    )
    (property "Footprint" "" (at 59.69 135.89 0)
      (effects (font (size 1.27 1.27)) hide)
    )
    (property "Datasheet" "" (at 59.69 135.89 0)
      (effects (font (size 1.27 1.27)) hide)
    )
    (pin "1" (uuid e70bf9f3-f17c-4dcf-86d6-20b0190a4f04))
    (instances
      (project "Rev1"
        (path "/dd96ad36-134f-47de-9868-ae7277e41ced"
          (reference "#PWR01") (unit 1)
        )
      )
    )
  )

  (symbol (lib_id "MCU_RaspberryPi:RP2040") (at 59.69 72.39 0) (unit 1)
    (in_bom yes) (on_board yes) (dnp no) (fields_autoplaced)
    (uuid e1189b4a-731f-45af-9695-fab94988aa33)
    (property "Reference" "U1" (at 61.8841 116.84 0)
      (effects (font (size 1.27 1.27)) (justify left))
    )
    (property "Value" "RP2040" (at 61.8841 119.38 0)
      (effects (font (size 1.27 1.27)) (justify left))
    )
    (property "Footprint" "Package_DFN_QFN:QFN-56-1EP_7x7mm_P0.4mm_EP3.2x3.2mm" (at 59.69 72.39 0)
      (effects (font (size 1.27 1.27)) hide)
    )
    (property "Datasheet" "https://datasheets.raspberrypi.com/rp2040/rp2040-datasheet.pdf" (at 59.69 72.39 0)
      (effects (font (size 1.27 1.27)) hide)
    )
    (pin "42" (uuid 437815d7-1721-4da3-8333-e07abd4db2c8))
    (pin "47" (uuid 7280a454-c4dd-4a19-bd70-aed1818e9617))
    (pin "46" (uuid 4ad03588-250a-4663-b5da-6e3c8628b4db))
    (pin "6" (uuid 8e60a029-b418-4243-832b-e7989059685e))
    (pin "38" (uuid 306af01d-3c5a-409b-baf8-f0732838b69e))
    (pin "45" (uuid 2c4fbe4c-c4a8-434b-8f5d-e2a0858d4a77))
    (pin "8" (uuid 2bc77fbe-8331-461c-b0e0-7f284b7ddd04))
    (pin "57" (uuid 6b1ea4e9-18e2-48d7-a3ea-e80310decf7f))
    (pin "34" (uuid 5f6c227c-653b-4933-b4f6-61e78668b707))
    (pin "4" (uuid 724d87f5-d34a-4ee6-a77d-4fdbbd34cfd3))
    (pin "31" (uuid 85480281-d472-4d07-bb2d-e9cbf679a859))
    (pin "52" (uuid 4e1ab6fb-48de-4380-8623-a0e1943c981b))
    (pin "55" (uuid 0d03dccc-1fe7-4088-9579-70d07be930af))
    (pin "54" (uuid d0aa4003-2c7a-40e8-af29-983cf1f376c7))
    (pin "40" (uuid bb94ad3a-4ab5-4cb9-abee-e503c3bdd7d1))
    (pin "44" (uuid d1aba95f-9fb7-4c4f-a0b6-c311e371e065))
    (pin "5" (uuid c9d213b7-6468-415e-9084-4660d5171209))
    (pin "43" (uuid 2a0cd0dc-3acb-436d-bfca-9b1d343e328f))
    (pin "28" (uuid 671bcb67-3338-4194-bb31-5c8009b1d7fc))
    (pin "3" (uuid 3de0b199-8d63-40e7-9bad-b1b6e88452f0))
    (pin "49" (uuid 4d70962b-b321-4f26-b44c-4a502dd19cb3))
    (pin "32" (uuid 8e455872-f8ae-4456-8db3-70045fe496ad))
    (pin "20" (uuid e46d270c-766d-4ffc-8880-e2d88e7628d8))
    (pin "48" (uuid 9fd65eb2-b369-4904-b56e-f3a42a3e66d4))
    (pin "33" (uuid fc40b4d1-1267-4a96-b940-841360fa791d))
    (pin "35" (uuid 421c46cb-e683-404f-956c-da3d4c21545e))
    (pin "41" (uuid 21f67cd1-dceb-400f-965a-cf205ebd08f8))
    (pin "50" (uuid cbbb09d9-7904-4494-9891-790117790f9d))
    (pin "7" (uuid 22a3f1de-fd8d-4b77-9555-bacc518ebbd8))
    (pin "29" (uuid 76af161b-a9e3-42e1-a95b-53a7255b9e8e))
    (pin "9" (uuid 615f9fdc-882b-413c-8c7f-c92202e2c8d8))
    (pin "21" (uuid 04685d26-36a0-482b-99cf-0e130d038a16))
    (pin "37" (uuid d06ccdf1-e1a1-4c8a-bc81-1456e327bc74))
    (pin "53" (uuid a89db9f5-e170-4d96-b60b-9b320362fe72))
    (pin "39" (uuid 5dae84cd-ea97-419a-bfe6-ae5541cf2402))
    (pin "56" (uuid c9987017-f8f3-4963-a81b-1c6de15a3459))
    (pin "51" (uuid 72769289-7b54-407a-996f-b9563df66ba3))
    (pin "36" (uuid 1fd76209-3f2f-44f8-9052-71371edf1fd8))
    (pin "30" (uuid 47f7d80c-9ca7-4003-b2a6-dc17ff89e073))
    (pin "13" (uuid d9aafe53-8311-4720-8caf-a5af8b1ec4ad))
    (pin "12" (uuid 4ac6b0f4-d2ee-4eb6-a3ff-4a90ed2edbef))
    (pin "11" (uuid 93115efe-1222-455b-ad2d-5c01100a1979))
    (pin "10" (uuid 36d7357f-59a4-485a-ab70-dbc65565a71b))
    (pin "15" (uuid 305181c2-2822-4c8d-930e-fcbfabdb2e90))
    (pin "14" (uuid 56938375-c8c6-40ee-aefa-b971bf38040a))
    (pin "17" (uuid 005f893e-74e1-45a9-b591-28fe2b317951))
    (pin "19" (uuid 0997ad57-0f0e-43e8-8166-980409e8904c))
    (pin "26" (uuid 800604c2-77bd-45d4-8709-2a047fe02345))
    (pin "23" (uuid 31eda967-c382-4a2b-b7bb-e16465ae2bd2))
    (pin "27" (uuid 6953abd4-9b28-47d7-8455-0f6482f90466))
    (pin "1" (uuid 8dbd0134-5497-47ca-8ed8-32af54008056))
    (pin "24" (uuid 2dd8857c-f1f7-4e05-8749-f143bc8ed3c8))
    (pin "25" (uuid 8a7ba3f3-5b15-45a3-b7cc-8d4724b8ef53))
    (pin "16" (uuid c8f44da4-feea-4e7d-8b5d-bbaff9f32216))
    (pin "22" (uuid c5cfea47-7859-4f8c-a832-99c14fa85f37))
    (pin "2" (uuid 74ea39c2-496d-41b5-a78f-a9c62e8c3d6e))
    (pin "18" (uuid 5d7bda22-6d30-4629-9e0e-1596ae0d1171))
    (instances
      (project "Rev1"
        (path "/dd96ad36-134f-47de-9868-ae7277e41ced"
          (reference "U1") (unit 1)
        )
      )
    )
  )

  (sheet_instances
    (path "/" (page "1"))
  )
)
