(kicad_symbol_lib (version 20211014) (generator kicad_symbol_editor)
  (symbol "MCH3478-TL-W" (pin_names (offset 0.254)) (in_bom yes) (on_board yes)
    (property "Reference" "U" (id 0) (at 22.86 10.16 0)
      (effects (font (size 1.524 1.524)))
    )
    (property "Value" "MCH3478-TL-W" (id 1) (at 22.86 7.62 0)
      (effects (font (size 1.524 1.524)))
    )
    (property "Footprint" "MCPH3-3_2X1P6_ONS" (id 2) (at 0 0 0)
      (effects (font (size 1.27 1.27) italic) hide)
    )
    (property "Datasheet" "MCH3478-TL-W" (id 3) (at 0 0 0)
      (effects (font (size 1.27 1.27) italic) hide)
    )
    (property "ki_keywords" "MCH3478-TL-W" (id 4) (at 0 0 0)
      (effects (font (size 1.27 1.27)) hide)
    )
    (property "ki_locked" "" (id 5) (at 0 0 0)
      (effects (font (size 1.27 1.27)) hide)
    )
    (property "ki_fp_filters" "MCPH3-3_2X1P6_ONS MCPH3-3_2X1P6_ONS-M MCPH3-3_2X1P6_ONS-L" (id 6) (at 0 0 0)
      (effects (font (size 1.27 1.27)) hide)
    )
    (symbol "MCH3478-TL-W_0_1"
      (polyline
        (pts
          (xy 7.62 5.08)
          (xy 7.62 -7.62)
        )
        (stroke (width 0.127) (type default) (color 0 0 0 0))
        (fill (type none))
      )
      (polyline
        (pts
          (xy 7.62 -7.62)
          (xy 38.1 -7.62)
        )
        (stroke (width 0.127) (type default) (color 0 0 0 0))
        (fill (type none))
      )
      (polyline
        (pts
          (xy 38.1 -7.62)
          (xy 38.1 5.08)
        )
        (stroke (width 0.127) (type default) (color 0 0 0 0))
        (fill (type none))
      )
      (polyline
        (pts
          (xy 38.1 5.08)
          (xy 7.62 5.08)
        )
        (stroke (width 0.127) (type default) (color 0 0 0 0))
        (fill (type none))
      )
      (pin unspecified line (at 0 0 0) (length 7.62)
        (name "GATE" (effects (font (size 1.27 1.27))))
        (number "1" (effects (font (size 1.27 1.27))))
      )
      (pin unspecified line (at 45.72 -2.54 180) (length 7.62)
        (name "SOURCE" (effects (font (size 1.27 1.27))))
        (number "2" (effects (font (size 1.27 1.27))))
      )
      (pin unspecified line (at 45.72 0 180) (length 7.62)
        (name "DRAIN" (effects (font (size 1.27 1.27))))
        (number "3" (effects (font (size 1.27 1.27))))
      )
    )
  )
)

