"Id";"Designator";"Footprint";"Quantity";"Designation";"Supplier and ref";
1;"SW4";"SW_PUSH_6mm";1;"8";;;
2;"SW2";"SW_PUSH_6mm";1;"4";;;
3;"VCC1,GND1,D-1,D+1";"smd_Mounting_Hole_1.06mm_1";4;"MountingHole_M3_3.2mm_Pad";;;
4;"SW5";"SW_PUSH_6mm";1;"9";;;
5;"H1";"MountingHole_2.2mm_M2_Pad_Via";1;"MountingHole_Pad";;;
6;"U5";"debugger";1;"debugger";;;
7;"SW11";"SW_PUSH_6mm";1;"3";;;
8;"SW8";"Nidec_Copal_CAS-120A";1;"SW_Nidec_CAS-120A1";;;
9;"SW1";"SW_PUSH_6mm";1;"7";;;
10;"SW9";"SW_PUSH_6mm";1;"2";;;
11;"U6";"SOT-223-3_TabPin2";1;"NCP1117-3.3_SOT223";;;
12;"2.9Eink1";"eink";1;"~";;;
13;"SW3";"SW_PUSH_6mm";1;"5";;;
14;"SW6";"SW_PUSH_6mm";1;"6";;;
15;"SW7";"SW_PUSH_6mm";1;"1";;;
16;"BT1";"BatteryHolder_Keystone_2468_2xAAA";1;"Battery";;;
17;"C10,C7,C3,C9,C11,C12,C6,C13,C5,C14,C15,C8,C4";"C_0603_1608Metric";13;"Capacitor_NP";;;
18;"Y1";"Crystal_SMD_2012-2Pin_2.0x1.2mm";1;"Crystal";;;
19;"D19,D25,D3,D7,D4,D21,D27,D18,D8,D5,D26,D34,D36,D23,D28,D29,D35,D6,D20,D14,D1,D16,D22,D13,D15,D33,D17,D32,D2,D24,D31,D30";"LED_1210_3225Metric_Pad1.42x2.65mm_HandSolder";32;"LED";;;
20;"R4,R5,R3,R7,R12,R8,R6,R10,R11,R9";"R_0201_0603Metric_Pad0.64x0.40mm_HandSolder";10;"Resistor";;;
21;"D10,D12,D11";"D_SOD-123";3;"D_Small";;;
22;"C2,C1";"C_0603_1608Metric";2;"22pF";;;
23;"U2";"MCPH3-3_2X1P6_ONS";1;"MCH3478-TL-W";;;
24;"L1";"L_Sunlord_MWSA0402S";1;"L";;;
25;"U1";"QFN-56-1EP_7x7mm_P0.4mm_EP3.2x3.2mm";1;"RP2040";;;
26;"R2,R1";"R_0201_0603Metric_Pad0.64x0.40mm_HandSolder";2;"27";;;
27;"U3";"SON_EW7-0SIT_MRN";1;"MT25QL256ABA1EW7-0SIT";;;
