(footprint "MCPH3-3_2X1P6_ONS" (version 20211014) (generator pcbnew)
  (layer "F.Cu")
  (tags "MCH3478-TL-W ")
  (attr smd)
  (fp_text reference "REF**" (at 0 0 unlocked) (layer F.SilkS)
    (effects (font (size 1 1) (thickness 0.15)))
  )
  (fp_text value MCPH3-3_2X1P6_ONS (at 0 0 unlocked) (layer F.Fab)
    (effects (font (size 1 1) (thickness 0.15)))
  )
  (fp_text user "${REFERENCE}" (at 0 0 unlocked) (layer F.Fab)
    (effects (font (size 1 1) (thickness 0.15)))
  )
  (fp_line (start -0.4976 0.8001) (end -0.8024 0.8001) (layer "F.Fab") (width 0.0254))
  (fp_line (start -0.8024 0.8001) (end -0.8024 1.0541) (layer "F.Fab") (width 0.0254))
  (fp_line (start -0.8024 1.0541) (end -0.4976 1.0541) (layer "F.Fab") (width 0.0254))
  (fp_line (start -0.4976 1.0541) (end -0.4976 0.8001) (layer "F.Fab") (width 0.0254))
  (fp_line (start 0.8024 0.8001) (end 0.4976 0.8001) (layer "F.Fab") (width 0.0254))
  (fp_line (start 0.4976 0.8001) (end 0.4976 1.0541) (layer "F.Fab") (width 0.0254))
  (fp_line (start 0.4976 1.0541) (end 0.8024 1.0541) (layer "F.Fab") (width 0.0254))
  (fp_line (start 0.8024 1.0541) (end 0.8024 0.8001) (layer "F.Fab") (width 0.0254))
  (fp_line (start -0.1524 -0.8001) (end 0.1524 -0.8001) (layer "F.Fab") (width 0.0254))
  (fp_line (start 0.1524 -0.8001) (end 0.1524 -1.0541) (layer "F.Fab") (width 0.0254))
  (fp_line (start 0.1524 -1.0541) (end -0.1524 -1.0541) (layer "F.Fab") (width 0.0254))
  (fp_line (start -0.1524 -1.0541) (end -0.1524 -0.8001) (layer "F.Fab") (width 0.0254))
  (fp_line (start -1.5113 1.3081) (end -1.5113 -1.3081) (layer "F.CrtYd") (width 0.1524))
  (fp_line (start -1.5113 -1.3081) (end -0.6858 -1.3081) (layer "F.CrtYd") (width 0.1524))
  (fp_line (start -0.6858 -1.3081) (end -0.6858 -1.8669) (layer "F.CrtYd") (width 0.1524))
  (fp_line (start -0.6858 -1.8669) (end 0.6858 -1.8669) (layer "F.CrtYd") (width 0.1524))
  (fp_line (start 0.6858 -1.3081) (end 0.6858 -1.8669) (layer "F.CrtYd") (width 0.1524))
  (fp_line (start 1.5113 -1.3081) (end 0.6858 -1.3081) (layer "F.CrtYd") (width 0.1524))
  (fp_line (start 1.5113 -1.3081) (end 1.5113 1.3081) (layer "F.CrtYd") (width 0.1524))
  (fp_line (start 1.5113 1.3081) (end 1.3358 1.3081) (layer "F.CrtYd") (width 0.1524))
  (fp_line (start -1.5113 1.3081) (end -1.3358 1.3081) (layer "F.CrtYd") (width 0.1524))
  (fp_line (start 1.3358 1.3081) (end 1.3358 1.8669) (layer "F.CrtYd") (width 0.1524))
  (fp_line (start -1.3358 1.3081) (end -1.3358 1.8669) (layer "F.CrtYd") (width 0.1524))
  (fp_line (start -1.3358 1.8669) (end 1.3358 1.8669) (layer "F.CrtYd") (width 0.1524))
  (fp_circle (center -0.7493 0.5461) (end -0.6223 0.5461) (layer "F.Fab") (width 0.0254) (fill none))
  (fp_circle (center -2.2733 1.0541) (end -2.1463 1.0541) (layer "F.SilkS") (width 0.1524) (fill none))
  (fp_line (start -0.139459 0.9271) (end 0.139459 0.9271) (layer "F.SilkS") (width 0.1524))
  (fp_line (start 1.1303 0.661504) (end 1.1303 -0.9271) (layer "F.SilkS") (width 0.1524))
  (fp_line (start 1.1303 -0.9271) (end 0.51054 -0.9271) (layer "F.SilkS") (width 0.1524))
  (fp_line (start -1.1303 -0.9271) (end -1.1303 0.661504) (layer "F.SilkS") (width 0.1524))
  (fp_line (start -1.0033 0.8001) (end 1.0033 0.8001) (layer "F.Fab") (width 0.0254))
  (fp_line (start 1.0033 0.8001) (end 1.0033 -0.8001) (layer "F.Fab") (width 0.0254))
  (fp_line (start 1.0033 -0.8001) (end -1.0033 -0.8001) (layer "F.Fab") (width 0.0254))
  (fp_line (start -1.0033 -0.8001) (end -1.0033 0.8001) (layer "F.Fab") (width 0.0254))
  (fp_line (start -0.51054 -0.9271) (end -1.1303 -0.9271) (layer "F.SilkS") (width 0.1524))
  (pad "1" smd rect (at -0.649999 1.0795) (size 0.3556 0.5588) (layers "F.Cu" "F.Paste" "F.Mask"))
  (pad "2" smd rect (at 0.649999 1.0795) (size 0.3556 0.5588) (layers "F.Cu" "F.Paste" "F.Mask"))
  (pad "3" smd rect (at 0 -1.0795) (size 0.3556 0.5588) (layers "F.Cu" "F.Paste" "F.Mask"))
)
